HarvardX: PH125.9x Professional Certificate in Data Science - Capstone MovieLens Project
…
# What's the impact per MOVIE compared to the overall Mean?
ImpactMovie <-
  edx %>%   group_by(movieId) %>%  summarize(ImpactMovie = sum(rating - avg) /
                                               (n() + 2))
ImpactMovie

## # A tibble: 10,677 x 2
##    movieId ImpactMovie
##      <dbl>       <dbl>
##  1       1      0.415 
##  2       2     -0.307 
##  3       3     -0.365 
##  4       4     -0.647 
##  5       5     -0.444 
##  6       6      0.303 
##  7       7     -0.154 
##  8       8     -0.377 
##  9       9     -0.514 
## 10      10     -0.0866
## # ... with 10,667 more rows
…
#MODEL 2 - MOVIE - Add Impact per Movie to model
prediction_Movie <-
  validation %>%   left_join(ImpactMovie, by = 'movieId') %>%  mutate(pred = avg + ImpactMovie)
model_2_rmse <- RMSE(validation$rating, prediction_Movie$pred)
model_2_rmse

## [1] 0.9438528

# What's the impact per USER compared to the overall Mean?
ImpactUser <-
  edx %>%   group_by(userId) %>%  summarize(ImpactUser = sum(rating - avg) /
                                              (n() + 2))
ImpactUser

## # A tibble: 69,878 x 2
##    userId ImpactUser
##     <int>      <dbl>
##  1      1      1.35 
##  2      2     -0.195
##  3      3      0.397
##  4      4      0.515
##  5      5      0.396
##  6      6      0.415
##  7      7      0.345
##  8      8     -0.126
##  9      9      0.489
## 10     10      0.312
## # ... with 69,868 more rows
…
#MODEL 3 - USER - Add Mean per User to model
prediction_User <-
  validation %>%   left_join(ImpactUser, by = 'userId') %>%  mutate(pred = avg + ImpactUser)
model_3_rmse <- RMSE(validation$rating, prediction_User$pred)
model_3_rmse

## [1] 0.9780767

# What's the impact per YEAR compared to the overall Mean?
ImpactYear <-
  edx %>%   group_by(year) %>%  summarize(ImpactYear = sum(rating - avg) /  (n() + 2))
ImpactYear

## # A tibble: 94 x 2
##     year ImpactYear
##    <int>      <dbl>
##  1  1915     -0.221
##  2  1916      0.313
##  3  1917      0.209
##  4  1918      0.135
##  5  1919     -0.225
##  6  1920      0.427
##  7  1921      0.318
##  8  1922      0.387
##  9  1923      0.269
## 10  1924      0.425
## # ... with 84 more rows
…
